{
  "project_info": {
    "project_number": "736015688468",
    "project_id": "maga-ca277",
    "storage_bucket": "maga-ca277.appspot.com"
  },
  "client": [
    {
      "client_info": {
        "mobilesdk_app_id": "1:736015688468:android:9a0eae10b47e9910f51801",
        "android_client_info": {
          "package_name": "de.maitsolutions.maga_app"
        }
      },
      "oauth_client": [
        {
          "client_id": "736015688468-i5lbvtoeb0opiqm7he5f5egaivpehckc.apps.googleusercontent.com",
          "client_type": 3
        }
      ],
      "api_key": [
        {
          "current_key": "AIzaSyAv1hDRD1VvhaQ2nBchKHBuJT6UQlPQrAg"
        }
      ],
      "services": {
        "appinvite_service": {
          "other_platform_oauth_client": [
            {
              "client_id": "736015688468-i5lbvtoeb0opiqm7he5f5egaivpehckc.apps.googleusercontent.com",
              "client_type": 3
            }
          ]
        }
      }
    }
  ],
  "configuration_version": "1"
}